<svg xmlns="http://www.w3.org/2000/svg" xmlns:xlink="http://www.w3.org/1999/xlink" width="10" height="10" viewBox="0 0 10 10">
    <defs>
        <path id="a" d="M4.91 5.852L1.137 9.623a.667.667 0 1 1-.943-.942l3.771-3.772-3.77-3.77a.667.667 0 0 1 .942-.944L4.91 3.966 8.681.196a.667.667 0 1 1 .942.942L5.853 4.91l3.77 3.772a.667.667 0 1 1-.942.942l-3.772-3.77z"/>
    </defs>
    <g fill="none" fill-rule="evenodd">
        <mask id="b" fill="#fff">
            <use xlink:href="#a"/>
        </mask>
        <use fill="#B6B5B5" fill-rule="nonzero" xlink:href="#a"/>
        <g mask="url(#b)">
            <path fill="#F97432" d="M-3-3h16v16H-3z"/>
        </g>
    </g>
</svg>
