<svg xmlns="http://www.w3.org/2000/svg" xmlns:xlink="http://www.w3.org/1999/xlink" width="12" height="12" viewBox="0 0 12 12">
    <defs>
        <path id="a" d="M1.5 4.5A.5.5 0 0 1 2 5v2a.5.5 0 0 1-1 0V5a.5.5 0 0 1 .5-.5zm9 0a.5.5 0 0 1 .5.5v2a.5.5 0 1 1-1 0V5a.5.5 0 0 1 .5-.5zM3 3a.5.5 0 0 1 .5.5v5a.5.5 0 0 1-1 0v-5A.5.5 0 0 1 3 3zm6 0a.5.5 0 0 1 .5.5v5a.5.5 0 0 1-1 0v-5A.5.5 0 0 1 9 3zM4.5 5.5h3a.5.5 0 0 1 0 1h-3a.5.5 0 0 1 0-1z"/>
    </defs>
    <g fill="none" fill-rule="evenodd">
        <path fill="#FFF" fill-rule="nonzero" d="M0 0h12v12H0z" opacity=".01"/>
        <mask id="b" fill="#fff">
            <use xlink:href="#a"/>
        </mask>
        <use fill="#D8D8D8" xlink:href="#a"/>
        <g fill="#8996A3" mask="url(#b)">
            <path d="M0 0h12v12H0z"/>
        </g>
    </g>
</svg>
