<svg xmlns="http://www.w3.org/2000/svg" xmlns:xlink="http://www.w3.org/1999/xlink" width="12" height="12" viewBox="0 0 12 12">
    <defs>
        <path id="a" d="M9.327 7.922c-.812.812-2.114.967-2.833.987.618-.624 1.719-1.942 1.945-3.55.69-.272 1.424-.34 1.879-.348-.01.699-.147 2.066-.991 2.91m-7.335 0c-.84-.84-.978-2.21-.99-2.91.502.008 1.344.09 2.091.442C3.332 6.918 4.28 8.128 4.9 8.78c0 .045.003.091.004.132-.7-.012-2.07-.15-2.91-.99m3.765-6.586c.576.58 1.726 1.928 1.726 3.446 0 1.519-1.15 2.868-1.726 3.447-.576-.578-1.726-1.922-1.726-3.447 0-1.518 1.15-2.867 1.726-3.446m5.545 3.141l-.038-.413-.414-.038a6.854 6.854 0 0 0-2.398.261C8.183 2.041 6.17.342 6.078.266L5.758 0 5.44.266c-.093.077-2.144 1.808-2.383 4.088-1.26-.44-2.513-.336-2.588-.328l-.413.038-.039.413c-.01.108-.226 2.657 1.27 4.152 1.14 1.14 2.893 1.285 3.709 1.285.253 0 .416-.014.442-.016l.222-.02.223.02c.025.002.188.016.442.016.816 0 2.57-.145 3.71-1.285 1.495-1.495 1.279-4.044 1.269-4.152"/>
    </defs>
    <g fill="none" fill-rule="evenodd">
        <path fill="#FFF" fill-rule="nonzero" d="M0 0h12v12H0z" opacity=".01"/>
        <g transform="translate(.5 1)">
            <mask id="b" fill="#fff">
                <use xlink:href="#a"/>
            </mask>
            <use fill="#231F20" xlink:href="#a"/>
            <g fill="#8996A3" mask="url(#b)">
                <path d="M-.5-1h12v12h-12z"/>
            </g>
        </g>
    </g>
</svg>
