<svg xmlns="http://www.w3.org/2000/svg" xmlns:xlink="http://www.w3.org/1999/xlink" width="12" height="12" viewBox="0 0 12 12">
    <defs>
        <path id="a" d="M7 3v-.5a.5.5 0 0 0-.5-.5.5.5 0 0 1 0-1A1.5 1.5 0 0 1 8 2.5v5a.5.5 0 0 1-1 0V6H5v1.5a.5.5 0 0 1-1 0v-5c0-.255-.254-.5-.5-.5-.39 0-.5.11-.5.5a.5.5 0 0 1-1 0C2 1.557 2.557 1 3.5 1 4.29 1 5 1.685 5 2.5V3h2zm0 1H5v1h2V4zm1 5c0 .565.382 1 1 1s1-.435 1-1a.5.5 0 1 1 1 0c0 1.09-.8 2-2 2-.634 0-1.156-.253-1.508-.653-.35.39-.867.636-1.492.636s-1.141-.246-1.492-.636C4.822 9.989 5 9.515 5 9a.5.5 0 1 0-1-.017.5.5 0 1 1 1 0c0 .565.382 1 1 1s1-.435 1-1A.5.5 0 1 1 8 9z"/>
    </defs>
    <g fill="none" fill-rule="evenodd">
        <path fill="#FFF" fill-rule="nonzero" d="M0 0h12v12H0z" opacity=".01"/>
        <mask id="b" fill="#fff">
            <use xlink:href="#a"/>
        </mask>
        <use fill="#F97342" fill-rule="nonzero" xlink:href="#a"/>
        <g fill="#8996A3" mask="url(#b)">
            <path d="M0 0h12v12H0z"/>
        </g>
    </g>
</svg>
