<svg xmlns="http://www.w3.org/2000/svg" xmlns:xlink="http://www.w3.org/1999/xlink" width="12" height="12" viewBox="0 0 12 12">
    <defs>
        <path id="a" d="M1.807 5.395a.5.5 0 0 1-.614-.79c3.18-2.473 6.433-2.473 9.614 0a.5.5 0 0 1-.614.79c-2.82-2.193-5.567-2.193-8.386 0zM3.812 6.89a.5.5 0 1 1-.624-.78c1.849-1.48 3.775-1.48 5.624 0a.5.5 0 1 1-.624.78c-1.484-1.187-2.892-1.187-4.376 0zM6 9.5a1 1 0 1 1 0-2 1 1 0 0 1 0 2z"/>
    </defs>
    <g fill="none" fill-rule="evenodd">
        <path fill="#FFF" fill-rule="nonzero" d="M0 0h12v12H0z" opacity=".01"/>
        <mask id="b" fill="#fff">
            <use xlink:href="#a"/>
        </mask>
        <use fill="#F97342" fill-rule="nonzero" xlink:href="#a"/>
        <g fill="#8996A3" mask="url(#b)">
            <path d="M0 0h12v12H0z"/>
        </g>
    </g>
</svg>
