<svg xmlns="http://www.w3.org/2000/svg" xmlns:xlink="http://www.w3.org/1999/xlink" width="40" height="40" viewBox="0 0 40 40">
    <defs>
        <circle id="b" cx="16" cy="16" r="16"/>
        <filter id="a" width="143.8%" height="143.8%" x="-21.9%" y="-15.6%" filterUnits="objectBoundingBox">
            <feOffset dy="2" in="SourceAlpha" result="shadowOffsetOuter1"/>
            <feGaussianBlur in="shadowOffsetOuter1" result="shadowBlurOuter1" stdDeviation="2"/>
            <feColorMatrix in="shadowBlurOuter1" values="0 0 0 0 0 0 0 0 0 0 0 0 0 0 0 0 0 0 0.1 0"/>
        </filter>
        <path id="c" d="M0 .106h19.716v14.477H0z"/>
    </defs>
    <g fill="none" fill-rule="evenodd">
        <g transform="translate(4 2)">
            <use fill="#000" filter="url(#a)" xlink:href="#b"/>
            <use fill="#FFF" xlink:href="#b"/>
        </g>
        <path fill="#0B0B49" d="M26.549 19.715l-5.96 6.077h5.468l1.59-6.077z"/>
        <g transform="translate(10 11.208)">
            <mask id="d" fill="#fff">
                <use xlink:href="#c"/>
            </mask>
            <path fill="#FA131E" d="M19.467.112h-4.474s-.243-.063-.519.246L0 14.584h11.07C15.5 12 17.195 9.502 17.502 9.006L19.698.313s.112-.201-.23-.201" mask="url(#d)"/>
        </g>
        <path fill="#FFF" d="M24.892 16.363c.078.304.157.606.232.91.11.436.217.871.322 1.307a.064.064 0 0 1-.02.059c-.151.14-.303.28-.458.416-.085.074-.132.071-.207-.009-.19-.206-.377-.414-.57-.619-.19-.204-.386-.404-.581-.607-.012-.011-.029-.022-.042-.034a.27.27 0 0 0-.024.006c.008.032.01.065.026.094.265.524.531 1.047.8 1.571.026.052.023.086-.027.13-.153.13-.298.265-.445.399-.015.012-.023.028-.035.042l-.024-.01c-.046-.09-.09-.183-.136-.273-.394-.8-.788-1.601-1.184-2.402-.036-.07-.02-.123.047-.183.233-.205.458-.416.686-.624.023-.021.047-.042.072-.062.051-.04.06-.038.102.006.164.179.329.356.492.536l.525.577c.04.043.087.082.13.122l.018-.008-.082-.344c-.118-.495-.234-.989-.358-1.482-.02-.084-.003-.144.07-.21.25-.219.488-.442.732-.663.066-.06.127-.048.166.03.123.235.238.471.368.705.344.623.694 1.243 1.043 1.865.023.039.02.07-.016.102l-.502.449c-.038.035-.084.03-.111-.015-.03-.046-.05-.097-.075-.146l-.827-1.525c-.023-.04-.054-.077-.081-.116l-.026.006M18.459 22.504c.028.063.056.127.087.188.235.465.47.93.709 1.393.03.06.027.117-.027.166-.151.137-.305.274-.458.41-.02.017-.048.029-.081.048-.026-.063-.045-.12-.07-.175-.17-.357-.336-.714-.514-1.07-.235-.467-.478-.936-.722-1.404-.037-.07-.03-.123.041-.183.109-.09.2-.188.301-.281.04-.039.09-.073.138-.106.208-.145.508-.125.692-.019.23.134.448.28.664.425.144.098.276.207.416.308.034.025.075.044.113.067.006-.005.012-.008.019-.012-.004-.011-.005-.023-.012-.035-.272-.52-.539-1.043-.822-1.56-.053-.095-.035-.151.046-.222.145-.129.28-.263.42-.395.017-.015.043-.027.065-.04.02.018.047.033.056.053.209.419.411.841.623 1.26.23.453.464.905.699 1.357.033.064.023.11-.04.164-.18.156-.349.317-.524.475a4.234 4.234 0 0 1-.135.114c-.036.03-.076.034-.118.004-.32-.234-.686-.428-1.035-.635-.149-.088-.294-.183-.442-.274-.021-.013-.05-.021-.074-.033l-.015.012M21.905 19.777l-.57-.51a.491.491 0 0 0-.018.006l.09.89c.175-.134.334-.259.498-.386m1.821.388c-.243.209-.482.417-.73.628l-.65-.551-.254.218c-.166.144-.33.288-.5.43-.032.03-.04.058-.034.092.053.312.104.623.152.935a.058.058 0 0 1-.019.055l-.677.61c-.007.005-.015.007-.032.016-.006-.05-.014-.094-.02-.138-.041-.435-.084-.872-.128-1.306l-.119-1.166c-.034-.345-.069-.69-.1-1.034a.093.093 0 0 1 .031-.072c.213-.192.428-.382.644-.573.078-.068.13-.067.212 0 .528.442 1.058.883 1.587 1.324l.598.495.04.037"/>
    </g>
</svg>
